{
	"info": {
		"_postman_id": "f8263715-70be-45eb-98cc-3fab37f7f490",
		"name": "Formation",
		"schema": "https://schema.getpostman.com/json/collection/v2.1.0/collection.json",
		"_exporter_id": "19114495"
	},
	"item": [
		{
			"name": "GET Country",
			"event": [
				{
					"listen": "test",
					"script": {
						"exec": [
							"pm.test(\"Status code is 200\", function () {",
							"    pm.response.to.have.status(200);",
							"});"
						],
						"type": "text/javascript"
					}
				}
			],
			"request": {
				"method": "GET",
				"header": [],
				"url": {
					"raw": "http://localhost:8080/countries?cityName=brest",
					"protocol": "http",
					"host": [
						"localhost"
					],
					"port": "8080",
					"path": [
						"countries"
					],
					"query": [
						{
							"key": "cityName",
							"value": "brest"
						}
					]
				}
			},
			"response": []
		},
		{
			"name": "GET Country by ID",
			"request": {
				"method": "GET",
				"header": [],
				"url": {
					"raw": "http://localhost:8080/countries/FRA",
					"protocol": "http",
					"host": [
						"localhost"
					],
					"port": "8080",
					"path": [
						"countries",
						"FRA"
					]
				}
			},
			"response": []
		},
		{
			"name": "POST Country",
			"request": {
				"method": "POST",
				"header": [],
				"body": {
					"mode": "raw",
					"raw": "{\n    \"code\": \"FRA\",\n    \"name\": \"France\"\n}",
					"options": {
						"raw": {
							"language": "json"
						}
					}
				},
				"url": {
					"raw": "http://localhost:8080/countries",
					"protocol": "http",
					"host": [
						"localhost"
					],
					"port": "8080",
					"path": [
						"countries"
					]
				}
			},
			"response": []
		},
		{
			"name": "PUT Country",
			"request": {
				"method": "PUT",
				"header": [],
				"body": {
					"mode": "raw",
					"raw": "{\n    \"libelle\": \"France2\"\n}",
					"options": {
						"raw": {
							"language": "json"
						}
					}
				},
				"url": {
					"raw": "http://localhost:8080/countries/FRAaaa",
					"protocol": "http",
					"host": [
						"localhost"
					],
					"port": "8080",
					"path": [
						"countries",
						"FRAaaa"
					]
				}
			},
			"response": []
		},
		{
			"name": "DELETE Country",
			"request": {
				"method": "DELETE",
				"header": [],
				"body": {
					"mode": "raw",
					"raw": "{\n    \"code\": \"FRA\",\n    \"libelle\": \"France\"\n}",
					"options": {
						"raw": {
							"language": "json"
						}
					}
				},
				"url": {
					"raw": "http://localhost:8080/countries/FRA",
					"protocol": "http",
					"host": [
						"localhost"
					],
					"port": "8080",
					"path": [
						"countries",
						"FRA"
					]
				}
			},
			"response": []
		},
		{
			"name": "GET City",
			"request": {
				"method": "GET",
				"header": [],
				"url": {
					"raw": "http://localhost:8080/cities",
					"protocol": "http",
					"host": [
						"localhost"
					],
					"port": "8080",
					"path": [
						"cities"
					]
				}
			},
			"response": []
		},
		{
			"name": "POST City",
			"request": {
				"method": "POST",
				"header": [],
				"body": {
					"mode": "raw",
					"raw": "{\n    \"code\": \"BR\",\n    \"name\": \"Brest\",\n    \"countryCode\": \"FRA\"\n}",
					"options": {
						"raw": {
							"language": "json"
						}
					}
				},
				"url": {
					"raw": "http://localhost:8080/cities",
					"protocol": "http",
					"host": [
						"localhost"
					],
					"port": "8080",
					"path": [
						"cities"
					]
				}
			},
			"response": []
		},
		{
			"name": "PUT City",
			"request": {
				"method": "PUT",
				"header": [],
				"body": {
					"mode": "raw",
					"raw": "{\n    \"code\": \"BR\",\n    \"name\": \"Brests\",\n    \"countryCode\": \"sqdsqds\"\n}",
					"options": {
						"raw": {
							"language": "json"
						}
					}
				},
				"url": {
					"raw": "http://localhost:8080/cities/BR",
					"protocol": "http",
					"host": [
						"localhost"
					],
					"port": "8080",
					"path": [
						"cities",
						"BR"
					]
				}
			},
			"response": []
		},
		{
			"name": "DELETE City",
			"request": {
				"method": "DELETE",
				"header": [],
				"url": {
					"raw": "http://localhost:8080/cities/BR",
					"protocol": "http",
					"host": [
						"localhost"
					],
					"port": "8080",
					"path": [
						"cities",
						"BR"
					]
				}
			},
			"response": []
		}
	]
}